[gd_scene load_steps=2 format=2]

[ext_resource path="res://menus/transitions/fade_transition.gd" type="Script" id=1]

[node name="FadeTransition" type="Control"]

pause_mode = 2
anchor_left = 0.0
anchor_top = 0.0
anchor_right = 1.0
anchor_bottom = 1.0
rect_pivot_offset = Vector2( 0, 0 )
rect_clip_content = false
mouse_filter = 0
mouse_default_cursor_shape = 0
size_flags_horizontal = 1
size_flags_vertical = 1
script = ExtResource( 1 )
_sections_unfolded = [ "Pause" ]
color = Color( 0.1, 0.1, 0.1, 1 )

[node name="Fade" type="ColorRect" parent="." index="0"]

visible = false
anchor_left = 0.0
anchor_top = 0.0
anchor_right = 1.0
anchor_bottom = 1.0
rect_pivot_offset = Vector2( 0, 0 )
rect_clip_content = false
mouse_filter = 0
mouse_default_cursor_shape = 0
size_flags_horizontal = 1
size_flags_vertical = 1
color = Color( 0.101961, 0.101961, 0.101961, 1 )

[node name="Tween" type="Tween" parent="." index="1"]

repeat = false
playback_process_mode = 1
playback_speed = 1.0
playback/active = false
playback/repeat = false
playback/speed = 1.0

[connection signal="tween_completed" from="Tween" to="." method="_on_Tween_tween_completed"]


