[gd_scene load_steps=5 format=2]

[ext_resource path="res://entities/components/collectable/Collectable.tscn" type="PackedScene" id=1]
[ext_resource path="res://entities/collectables/SuperJump/super_jump.gd" type="Script" id=2]
[ext_resource path="res://entities/collectables/SuperJump/superjump.png" type="Texture" id=3]

[sub_resource type="CircleShape2D" id=1]

custom_solver_bias = 0.0
radius = 8.79327

[node name="super_jump" instance=ExtResource( 1 )]

[node name="Collectable_Shape" type="CollisionShape2D" parent="." index="0"]

shape = SubResource( 1 )

[node name="super_jump_attributes" type="Node2D" parent="." index="1"]

editor/display_folded = true
script = ExtResource( 2 )
duration = 5
multiplier = 1.5

[node name="Sprite" type="Sprite" parent="super_jump_attributes" index="0"]

texture = ExtResource( 3 )

[node name="Timer" type="Timer" parent="super_jump_attributes" index="1"]

process_mode = 1
wait_time = 1.0
one_shot = true
autostart = false

[connection signal="collected" from="." to="super_jump_attributes" method="_on_super_jump_collected"]

[connection signal="timeout" from="super_jump_attributes/Timer" to="super_jump_attributes" method="_on_Timer_timeout"]


