[gd_scene load_steps=6 format=2]

[ext_resource path="res://entities/actors/ActorBase.tscn" type="PackedScene" id=1]
[ext_resource path="res://controls/ControlBase.tscn" type="PackedScene" id=2]
[ext_resource path="res://entities/hazards/hitbox.tscn" type="PackedScene" id=3]

[sub_resource type="CircleShape2D" id=1]

custom_solver_bias = 0.0
radius = 10.0

[sub_resource type="RectangleShape2D" id=2]

custom_solver_bias = 0.0
extents = Vector2( 11.0683, 14.7165 )

[node name="Creeper" index="0" groups=[
"Enemy",
] instance=ExtResource( 1 )]

collision_layer = 8
collision_mask = 167
_sections_unfolded = [ "Collision" ]

[node name="Polygon2D" type="Polygon2D" parent="." index="0"]

polygon = PoolVector2Array( -18, -32, 18, -32, 0, 0 )
uv = PoolVector2Array(  )
color = Color( 0.671875, 0.314941, 0, 1 )
vertex_colors = PoolColorArray(  )
offset = Vector2( 0, 0 )
antialiased = false
texture = null
texture_offset = Vector2( 0, 0 )
texture_scale = Vector2( 1, 1 )
texture_rotation_degrees = 0.0
invert_enable = false
invert_border = 100.0
__meta__ = {
"_edit_lock_": true
}

[node name="Collision" type="CollisionShape2D" parent="." index="1"]

position = Vector2( 0, -11 )
shape = SubResource( 1 )

[node name="Control" parent="." index="5" instance=ExtResource( 2 )]

action_direction = Vector2( 0, 0 )
action_jump = false
action_umbrella = false

[node name="Hitbox" parent="." index="6" instance=ExtResource( 3 )]

editor/display_folded = true
position = Vector2( 0.104309, 3.44221 )
collision_layer = 8
collision_mask = 2

[node name="CollisionShape2D" type="CollisionShape2D" parent="Hitbox" index="0"]

position = Vector2( 0, -19 )
shape = SubResource( 2 )
_sections_unfolded = [ "Transform" ]
__meta__ = {
"_edit_lock_": true
}


